    0.10000E-03    0.55274E+03
    0.10202E-03    0.56345E+03
    0.10408E-03    0.57437E+03
    0.10618E-03    0.58550E+03
    0.10833E-03    0.59684E+03
    0.11052E-03    0.60840E+03
    0.11275E-03    0.62019E+03
    0.11503E-03    0.63220E+03
    0.11735E-03    0.64445E+03
    0.11972E-03    0.65693E+03
    0.12214E-03    0.66965E+03
    0.12461E-03    0.68262E+03
    0.12712E-03    0.69584E+03
    0.12969E-03    0.70932E+03
    0.13231E-03    0.72306E+03
    0.13499E-03    0.73706E+03
    0.13771E-03    0.75133E+03
    0.14049E-03    0.76588E+03
    0.14333E-03    0.78071E+03
    0.14623E-03    0.79582E+03
    0.14918E-03    0.81123E+03
    0.15220E-03    0.82694E+03
    0.15527E-03    0.84295E+03
    0.15841E-03    0.85926E+03
    0.16161E-03    0.87590E+03
    0.16487E-03    0.89285E+03
    0.16820E-03    0.91013E+03
    0.17160E-03    0.92774E+03
    0.17507E-03    0.94570E+03
    0.17860E-03    0.96399E+03
    0.18221E-03    0.98265E+03
    0.18589E-03    0.10017E+04
    0.18965E-03    0.10210E+04
    0.19348E-03    0.10408E+04
    0.19739E-03    0.10609E+04
    0.20138E-03    0.10814E+04
    0.20544E-03    0.11024E+04
    0.20959E-03    0.11237E+04
    0.21383E-03    0.11454E+04
    0.21815E-03    0.11675E+04
    0.22255E-03    0.11901E+04
    0.22705E-03    0.12131E+04
    0.23164E-03    0.12366E+04
    0.23632E-03    0.12605E+04
    0.24109E-03    0.12848E+04
    0.24596E-03    0.13096E+04
    0.25093E-03    0.13349E+04
    0.25600E-03    0.13607E+04
    0.26117E-03    0.13870E+04
    0.26645E-03    0.14138E+04
    0.27183E-03    0.14411E+04
    0.27732E-03    0.14689E+04
    0.28292E-03    0.14972E+04
    0.28864E-03    0.15261E+04
    0.29447E-03    0.15556E+04
    0.30042E-03    0.15856E+04
    0.30649E-03    0.16161E+04
    0.31268E-03    0.16473E+04
    0.31899E-03    0.16791E+04
    0.32544E-03    0.17114E+04
    0.33201E-03    0.17444E+04
    0.33872E-03    0.17780E+04
    0.34556E-03    0.18123E+04
    0.35254E-03    0.18471E+04
    0.35966E-03    0.18827E+04
    0.36693E-03    0.19189E+04
    0.37434E-03    0.19559E+04
    0.38190E-03    0.19935E+04
    0.38962E-03    0.20318E+04
    0.39749E-03    0.20709E+04
    0.40552E-03    0.21107E+04
    0.41371E-03    0.21512E+04
    0.42207E-03    0.21925E+04
    0.43060E-03    0.22346E+04
    0.43929E-03    0.22775E+04
    0.44817E-03    0.23212E+04
    0.45722E-03    0.23657E+04
    0.46646E-03    0.24110E+04
    0.47588E-03    0.24572E+04
    0.48550E-03    0.25043E+04
    0.49530E-03    0.25522E+04
    0.50531E-03    0.26011E+04
    0.51552E-03    0.26508E+04
    0.52593E-03    0.27015E+04
    0.53656E-03    0.27531E+04
    0.54739E-03    0.28057E+04
    0.55845E-03    0.28593E+04
    0.56973E-03    0.29138E+04
    0.58124E-03    0.29694E+04
    0.59299E-03    0.30260E+04
    0.60496E-03    0.30836E+04
    0.61719E-03    0.31423E+04
    0.62965E-03    0.32021E+04
    0.64237E-03    0.32629E+04
    0.65535E-03    0.33249E+04
    0.66859E-03    0.33880E+04
    0.68210E-03    0.34523E+04
    0.69588E-03    0.35178E+04
    0.70993E-03    0.35844E+04
    0.72427E-03    0.36522E+04
    0.73891E-03    0.37213E+04
    0.75383E-03    0.37916E+04
    0.76906E-03    0.38632E+04
    0.78460E-03    0.39361E+04
    0.80045E-03    0.40103E+04
    0.81662E-03    0.40859E+04
    0.83311E-03    0.41627E+04
    0.84994E-03    0.42410E+04
    0.86711E-03    0.43206E+04
    0.88463E-03    0.44017E+04
    0.90250E-03    0.44842E+04
    0.92073E-03    0.45682E+04
    0.93933E-03    0.46536E+04
    0.95831E-03    0.47405E+04
    0.97767E-03    0.48290E+04
    0.99742E-03    0.49190E+04
    0.10176E-02    0.50106E+04
    0.10381E-02    0.51038E+04
    0.10591E-02    0.51985E+04
    0.10805E-02    0.52949E+04
    0.11023E-02    0.53930E+04
    0.11246E-02    0.54928E+04
    0.11473E-02    0.55942E+04
    0.11705E-02    0.56974E+04
    0.11941E-02    0.58023E+04
    0.12182E-02    0.59090E+04
    0.12429E-02    0.60175E+04
    0.12680E-02    0.61278E+04
    0.12936E-02    0.62399E+04
    0.13197E-02    0.63539E+04
    0.13464E-02    0.64698E+04
    0.13736E-02    0.65876E+04
    0.14013E-02    0.67073E+04
    0.14296E-02    0.68289E+04
    0.14585E-02    0.69525E+04
    0.14880E-02    0.70781E+04
    0.15180E-02    0.72058E+04
    0.15487E-02    0.73354E+04
    0.15800E-02    0.74671E+04
    0.16119E-02    0.76008E+04
    0.16445E-02    0.77367E+04
    0.16777E-02    0.78747E+04
    0.17116E-02    0.80147E+04
    0.17462E-02    0.81570E+04
    0.17814E-02    0.83014E+04
    0.18174E-02    0.84480E+04
    0.18541E-02    0.85967E+04
    0.18916E-02    0.87477E+04
    0.19298E-02    0.89009E+04
    0.19688E-02    0.90564E+04
    0.20086E-02    0.92141E+04
    0.20491E-02    0.93741E+04
    0.20905E-02    0.95364E+04
    0.21328E-02    0.97010E+04
    0.21758E-02    0.98678E+04
    0.22198E-02    0.10037E+05
    0.22646E-02    0.10209E+05
    0.23104E-02    0.10382E+05
    0.23571E-02    0.10558E+05
    0.24047E-02    0.10737E+05
    0.24533E-02    0.10918E+05
    0.25028E-02    0.11101E+05
    0.25534E-02    0.11287E+05
    0.26050E-02    0.11474E+05
    0.26576E-02    0.11665E+05
    0.27113E-02    0.11857E+05
    0.27660E-02    0.12052E+05
    0.28219E-02    0.12249E+05
    0.28789E-02    0.12449E+05
    0.29371E-02    0.12651E+05
    0.29964E-02    0.12855E+05
    0.30569E-02    0.13061E+05
    0.31187E-02    0.13270E+05
    0.31817E-02    0.13481E+05
    0.32460E-02    0.13694E+05
    0.33115E-02    0.13909E+05
    0.33784E-02    0.14127E+05
    0.34467E-02    0.14346E+05
    0.35163E-02    0.14568E+05
    0.35874E-02    0.14792E+05
    0.36598E-02    0.15018E+05
    0.37338E-02    0.15246E+05
    0.38092E-02    0.15476E+05
    0.38861E-02    0.15708E+05
    0.39646E-02    0.15941E+05
    0.40447E-02    0.16177E+05
    0.41264E-02    0.16414E+05
    0.42098E-02    0.16653E+05
    0.42948E-02    0.16893E+05
    0.43816E-02    0.17136E+05
    0.44701E-02    0.17379E+05
    0.45604E-02    0.17624E+05
    0.46525E-02    0.17871E+05
    0.47465E-02    0.18119E+05
    0.48424E-02    0.18368E+05
    0.49402E-02    0.18618E+05
    0.50400E-02    0.18869E+05
    0.51419E-02    0.19121E+05
    0.52457E-02    0.19374E+05
    0.53517E-02    0.19628E+05
    0.54598E-02    0.19882E+05
    0.55701E-02    0.20137E+05
    0.56826E-02    0.20392E+05
    0.57974E-02    0.20647E+05
    0.59145E-02    0.20903E+05
    0.60340E-02    0.21158E+05
    0.61559E-02    0.21413E+05
    0.62803E-02    0.21669E+05
    0.64072E-02    0.21923E+05
    0.65366E-02    0.22177E+05
    0.66686E-02    0.22430E+05
    0.68033E-02    0.22683E+05
    0.69408E-02    0.22934E+05
    0.70810E-02    0.23184E+05
    0.72240E-02    0.23432E+05
    0.73700E-02    0.23679E+05
    0.75189E-02    0.23924E+05
    0.76708E-02    0.24167E+05
    0.78257E-02    0.24408E+05
    0.79838E-02    0.24647E+05
    0.81451E-02    0.24882E+05
    0.83096E-02    0.25115E+05
    0.84775E-02    0.25344E+05
    0.86488E-02    0.25570E+05
    0.88235E-02    0.25793E+05
    0.90017E-02    0.26011E+05
    0.91836E-02    0.26225E+05
    0.93691E-02    0.26435E+05
    0.95583E-02    0.26640E+05
    0.97514E-02    0.26840E+05
    0.99484E-02    0.27035E+05
    0.10149E-01    0.27225E+05
    0.10354E-01    0.27409E+05
    0.10564E-01    0.27586E+05
    0.10777E-01    0.27758E+05
    0.10995E-01    0.27924E+05
    0.11217E-01    0.28082E+05
    0.11443E-01    0.28234E+05
    0.11675E-01    0.28377E+05
    0.11910E-01    0.28513E+05
    0.12151E-01    0.28640E+05
    0.12397E-01    0.28758E+05
    0.12647E-01    0.28867E+05
    0.12902E-01    0.28965E+05
    0.13163E-01    0.29053E+05
    0.13429E-01    0.29130E+05
    0.13700E-01    0.29196E+05
    0.13977E-01    0.29250E+05
    0.14259E-01    0.29293E+05
    0.14547E-01    0.29326E+05
    0.14841E-01    0.29348E+05
    0.15141E-01    0.29360E+05
    0.15447E-01    0.29362E+05
    0.15759E-01    0.29355E+05
    0.16077E-01    0.29339E+05
    0.16402E-01    0.29313E+05
    0.16734E-01    0.29279E+05
    0.17072E-01    0.29234E+05
    0.17416E-01    0.29179E+05
    0.17768E-01    0.29112E+05
    0.18127E-01    0.29031E+05
    0.18493E-01    0.28935E+05
    0.18867E-01    0.28824E+05
    0.19248E-01    0.28696E+05
    0.19637E-01    0.28551E+05
    0.20034E-01    0.28387E+05
    0.20438E-01    0.28203E+05
    0.20851E-01    0.28001E+05
    0.21272E-01    0.27781E+05
    0.21702E-01    0.27545E+05
    0.22141E-01    0.27292E+05
    0.22588E-01    0.27025E+05
    0.23044E-01    0.26745E+05
    0.23510E-01    0.26451E+05
    0.23985E-01    0.26146E+05
    0.24469E-01    0.25830E+05
    0.24964E-01    0.25504E+05
    0.25468E-01    0.25170E+05
    0.25982E-01    0.24828E+05
    0.26507E-01    0.24479E+05
    0.27043E-01    0.24125E+05
    0.27589E-01    0.23767E+05
    0.28146E-01    0.23404E+05
    0.28715E-01    0.23040E+05
    0.29295E-01    0.22673E+05
    0.29887E-01    0.22306E+05
    0.30490E-01    0.21938E+05
    0.31106E-01    0.21570E+05
    0.31735E-01    0.21202E+05
    0.32376E-01    0.20832E+05
    0.33030E-01    0.20460E+05
    0.33697E-01    0.20087E+05
    0.34378E-01    0.19712E+05
    0.35072E-01    0.19335E+05
    0.35781E-01    0.18956E+05
    0.36504E-01    0.18575E+05
    0.37241E-01    0.18192E+05
    0.37993E-01    0.17809E+05
    0.38761E-01    0.17431E+05
    0.39544E-01    0.17058E+05
    0.40343E-01    0.16694E+05
    0.41158E-01    0.16341E+05
    0.41989E-01    0.16001E+05
    0.42838E-01    0.15675E+05
    0.43703E-01    0.15366E+05
    0.44586E-01    0.15074E+05
    0.45486E-01    0.14801E+05
    0.46405E-01    0.14545E+05
    0.47343E-01    0.14304E+05
    0.48299E-01    0.14077E+05
    0.49275E-01    0.13862E+05
    0.50270E-01    0.13657E+05
    0.51286E-01    0.13461E+05
    0.52322E-01    0.13272E+05
    0.53379E-01    0.13090E+05
    0.54457E-01    0.12912E+05
    0.55557E-01    0.12739E+05
    0.56680E-01    0.12567E+05
    0.57825E-01    0.12396E+05
    0.58993E-01    0.12224E+05
    0.60184E-01    0.12049E+05
    0.61400E-01    0.11870E+05
    0.62641E-01    0.11686E+05
    0.63906E-01    0.11496E+05
    0.65197E-01    0.11299E+05
    0.66514E-01    0.11093E+05
    0.67858E-01    0.10878E+05
    0.69229E-01    0.10653E+05
    0.70627E-01    0.10419E+05
    0.72054E-01    0.10174E+05
    0.73510E-01    0.99182E+04
    0.74994E-01    0.96523E+04
    0.76509E-01    0.93762E+04
    0.78055E-01    0.90901E+04
    0.79632E-01    0.87945E+04
    0.81241E-01    0.84899E+04
    0.82882E-01    0.81780E+04
    0.84556E-01    0.78644E+04
    0.86264E-01    0.75549E+04
    0.88007E-01    0.72544E+04
    0.89785E-01    0.69671E+04
    0.91598E-01    0.66967E+04
    0.93449E-01    0.64459E+04
    0.95337E-01    0.62173E+04
    0.97263E-01    0.60129E+04
    0.99227E-01    0.58343E+04
    0.10123E+00    0.56820E+04
    0.10328E+00    0.55511E+04
    0.10536E+00    0.54362E+04
    0.10749E+00    0.53324E+04
    0.10966E+00    0.52351E+04
    0.11188E+00    0.51401E+04
    0.11414E+00    0.50435E+04
    0.11644E+00    0.49418E+04
    0.11880E+00    0.48315E+04
    0.12120E+00    0.47098E+04
    0.12365E+00    0.45753E+04
    0.12614E+00    0.44307E+04
    0.12869E+00    0.42797E+04
    0.13129E+00    0.41258E+04
    0.13394E+00    0.39719E+04
    0.13665E+00    0.38206E+04
    0.13941E+00    0.36742E+04
    0.14223E+00    0.35346E+04
    0.14510E+00    0.34034E+04
    0.14803E+00    0.32820E+04
    0.15102E+00    0.31709E+04
    0.15407E+00    0.30687E+04
    0.15718E+00    0.29734E+04
    0.16036E+00    0.28834E+04
    0.16360E+00    0.27973E+04
    0.16690E+00    0.27136E+04
    0.17028E+00    0.26312E+04
    0.17371E+00    0.25491E+04
    0.17722E+00    0.24664E+04
    0.18080E+00    0.23823E+04
    0.18446E+00    0.22965E+04
    0.18818E+00    0.22098E+04
    0.19198E+00    0.21235E+04
    0.19586E+00    0.20383E+04
    0.19982E+00    0.19553E+04
    0.20386E+00    0.18751E+04
    0.20797E+00    0.17982E+04
    0.21218E+00    0.17253E+04
    0.21646E+00    0.16565E+04
    0.22083E+00    0.15923E+04
    0.22530E+00    0.15328E+04
    0.22985E+00    0.14774E+04
    0.23449E+00    0.14254E+04
    0.23923E+00    0.13762E+04
    0.24406E+00    0.13295E+04
    0.24899E+00    0.12847E+04
    0.25402E+00    0.12415E+04
    0.25915E+00    0.11995E+04
    0.26439E+00    0.11583E+04
    0.26973E+00    0.11178E+04
    0.27518E+00    0.10777E+04
    0.28074E+00    0.10381E+04
    0.28641E+00    0.99928E+03
    0.29219E+00    0.96121E+03
    0.29810E+00    0.92404E+03
    0.30412E+00    0.88787E+03
    0.31026E+00    0.85275E+03
    0.31653E+00    0.81875E+03
    0.32292E+00    0.78592E+03
    0.32945E+00    0.75430E+03
    0.33610E+00    0.72390E+03
    0.34289E+00    0.69468E+03
    0.34982E+00    0.66660E+03
    0.35689E+00    0.63962E+03
    0.36409E+00    0.61370E+03
    0.37145E+00    0.58880E+03
    0.37895E+00    0.56488E+03
    0.38661E+00    0.54189E+03
    0.39442E+00    0.51982E+03
    0.40239E+00    0.49862E+03
    0.41052E+00    0.47826E+03
    0.41881E+00    0.45870E+03
    0.42727E+00    0.43991E+03
    0.43590E+00    0.42185E+03
    0.44471E+00    0.40449E+03
    0.45369E+00    0.38781E+03
    0.46286E+00    0.37177E+03
    0.47221E+00    0.35635E+03
    0.48174E+00    0.34152E+03
    0.49148E+00    0.32726E+03
    0.50141E+00    0.31355E+03
    0.51153E+00    0.30037E+03
    0.52187E+00    0.28769E+03
    0.53241E+00    0.27552E+03
    0.54317E+00    0.26382E+03
    0.55414E+00    0.25259E+03
    0.56533E+00    0.24181E+03
    0.57675E+00    0.23146E+03
    0.58840E+00    0.22153E+03
    0.60029E+00    0.21201E+03
    0.61242E+00    0.20288E+03
    0.62479E+00    0.19412E+03
    0.63741E+00    0.18572E+03
    0.65029E+00    0.17767E+03
    0.66342E+00    0.16996E+03
    0.67683E+00    0.16256E+03
    0.69050E+00    0.15547E+03
    0.70445E+00    0.14867E+03
    0.71868E+00    0.14216E+03
    0.73320E+00    0.13592E+03
    0.74801E+00    0.12993E+03
    0.76312E+00    0.12420E+03
    0.77854E+00    0.11871E+03
    0.79426E+00    0.11346E+03
    0.81031E+00    0.10842E+03
    0.82668E+00    0.10360E+03
    0.84338E+00    0.98982E+02
    0.86041E+00    0.94562E+02
    0.87780E+00    0.90332E+02
    0.89553E+00    0.86284E+02
    0.91362E+00    0.82410E+02
    0.93208E+00    0.78704E+02
    0.95091E+00    0.75158E+02
    0.97011E+00    0.71765E+02
    0.98971E+00    0.68520E+02
    0.10097E+01    0.65416E+02
    0.10301E+01    0.62448E+02
    0.10509E+01    0.59610E+02
    0.10721E+01    0.56896E+02
    0.10938E+01    0.54301E+02
    0.11159E+01    0.51820E+02
    0.11384E+01    0.49448E+02
    0.11614E+01    0.47182E+02
    0.11849E+01    0.45016E+02
    0.12088E+01    0.42946E+02
    0.12333E+01    0.40967E+02
    0.12582E+01    0.39077E+02
    0.12836E+01    0.37272E+02
    0.13095E+01    0.35547E+02
    0.13360E+01    0.33900E+02
    0.13630E+01    0.32326E+02
    0.13905E+01    0.30823E+02
    0.14186E+01    0.29388E+02
    0.14472E+01    0.28018E+02
    0.14765E+01    0.26710E+02
    0.15063E+01    0.25461E+02
    0.15367E+01    0.24269E+02
    0.15678E+01    0.23132E+02
    0.15994E+01    0.22046E+02
    0.16318E+01    0.21010E+02
    0.16647E+01    0.20021E+02
    0.16984E+01    0.19078E+02
    0.17327E+01    0.18178E+02
    0.17677E+01    0.17319E+02
    0.18034E+01    0.16499E+02
    0.18398E+01    0.15718E+02
    0.18770E+01    0.14972E+02
    0.19149E+01    0.14261E+02
    0.19536E+01    0.13582E+02
    0.19930E+01    0.12935E+02
    0.20333E+01    0.12317E+02
    0.20744E+01    0.11729E+02
    0.21163E+01    0.11168E+02
    0.21590E+01    0.10633E+02
    0.22026E+01    0.10123E+02
    0.22471E+01    0.96372E+01
    0.22925E+01    0.91745E+01
    0.23388E+01    0.87339E+01
    0.23861E+01    0.83143E+01
