-4.551416e+00	1.083372e+01	6
-4.434127e+00	1.107360e+01	12
-4.316839e+00	1.078768e+01	38
-4.199550e+00	1.061512e+01	36
-4.082262e+00	1.071717e+01	158
-3.964973e+00	1.051975e+01	264
-3.847685e+00	1.031287e+01	698
-3.730396e+00	1.017189e+01	1564
-3.613108e+00	9.973058e+00	3410
-3.495819e+00	9.762511e+00	7618
-3.378531e+00	9.537905e+00	17298
-3.261242e+00	9.272218e+00	38880
-3.143953e+00	8.909165e+00	86860
-3.026665e+00	8.155902e+00	196236
-2.909376e+00	nan	441760
-2.792088e+00	nan	991280
-2.674799e+00	nan	2230586
-2.557511e+00	nan	5009925
-2.440222e+00	nan	6292228
-2.322934e+00	nan	1458358
